%YAML 1.1
%TAG !u! tag:unity3d.com,2011:
--- !u!1001 &6235466545440108824
PrefabInstance:
  m_ObjectHideFlags: 0
  serializedVersion: 2
  m_Modification:
    m_TransformParent: {fileID: 0}
    m_Modifications:
    - target: {fileID: 6789899411499849208, guid: 3d35c0980ed76284f9a4d65a9fe0a004,
        type: 3}
      propertyPath: m_Size.x
      value: 20
      objectReference: {fileID: 0}
    - target: {fileID: 6789899411499849208, guid: 3d35c0980ed76284f9a4d65a9fe0a004,
        type: 3}
      propertyPath: m_SpriteTilingProperty.newSize.x
      value: 20
      objectReference: {fileID: 0}
    - target: {fileID: 6789899411499849209, guid: 3d35c0980ed76284f9a4d65a9fe0a004,
        type: 3}
      propertyPath: m_RootOrder
      value: 0
      objectReference: {fileID: 0}
    - target: {fileID: 6789899411499849209, guid: 3d35c0980ed76284f9a4d65a9fe0a004,
        type: 3}
      propertyPath: m_LocalPosition.x
      value: 0
      objectReference: {fileID: 0}
    - target: {fileID: 6789899411499849209, guid: 3d35c0980ed76284f9a4d65a9fe0a004,
        type: 3}
      propertyPath: m_LocalPosition.y
      value: 0
      objectReference: {fileID: 0}
    - target: {fileID: 6789899411499849209, guid: 3d35c0980ed76284f9a4d65a9fe0a004,
        type: 3}
      propertyPath: m_LocalPosition.z
      value: 0
      objectReference: {fileID: 0}
    - target: {fileID: 6789899411499849209, guid: 3d35c0980ed76284f9a4d65a9fe0a004,
        type: 3}
      propertyPath: m_LocalRotation.w
      value: 1
      objectReference: {fileID: 0}
    - target: {fileID: 6789899411499849209, guid: 3d35c0980ed76284f9a4d65a9fe0a004,
        type: 3}
      propertyPath: m_LocalRotation.x
      value: 0
      objectReference: {fileID: 0}
    - target: {fileID: 6789899411499849209, guid: 3d35c0980ed76284f9a4d65a9fe0a004,
        type: 3}
      propertyPath: m_LocalRotation.y
      value: 0
      objectReference: {fileID: 0}
    - target: {fileID: 6789899411499849209, guid: 3d35c0980ed76284f9a4d65a9fe0a004,
        type: 3}
      propertyPath: m_LocalRotation.z
      value: 0
      objectReference: {fileID: 0}
    - target: {fileID: 6789899411499849209, guid: 3d35c0980ed76284f9a4d65a9fe0a004,
        type: 3}
      propertyPath: m_LocalEulerAnglesHint.x
      value: 0
      objectReference: {fileID: 0}
    - target: {fileID: 6789899411499849209, guid: 3d35c0980ed76284f9a4d65a9fe0a004,
        type: 3}
      propertyPath: m_LocalEulerAnglesHint.y
      value: 0
      objectReference: {fileID: 0}
    - target: {fileID: 6789899411499849209, guid: 3d35c0980ed76284f9a4d65a9fe0a004,
        type: 3}
      propertyPath: m_LocalEulerAnglesHint.z
      value: 0
      objectReference: {fileID: 0}
    - target: {fileID: 6789899411499849210, guid: 3d35c0980ed76284f9a4d65a9fe0a004,
        type: 3}
      propertyPath: m_Name
      value: WallHorizontal
      objectReference: {fileID: 0}
    - target: {fileID: 6789899411499849211, guid: 3d35c0980ed76284f9a4d65a9fe0a004,
        type: 3}
      propertyPath: m_Size.x
      value: 20
      objectReference: {fileID: 0}
    m_RemovedComponents: []
  m_SourcePrefab: {fileID: 100100000, guid: 3d35c0980ed76284f9a4d65a9fe0a004, type: 3}
