%YAML 1.1
%TAG !u! tag:unity3d.com,2011:
--- !u!114 &7376907079294258927
MonoBehaviour:
  m_ObjectHideFlags: 0
  m_CorrespondingSourceObject: {fileID: 0}
  m_PrefabInstance: {fileID: 0}
  m_PrefabAsset: {fileID: 0}
  m_GameObject: {fileID: 8308455822158039094}
  m_Enabled: 1
  m_EditorHideFlags: 0
  m_Script: {fileID: 11500000, guid: efe8ef6110f8ab34380483a56b0a4093, type: 3}
  m_Name: 
  m_EditorClassIdentifier: 
  textUI: {fileID: 8308455822158039092}
--- !u!1001 &2185294581576318881
PrefabInstance:
  m_ObjectHideFlags: 0
  serializedVersion: 2
  m_Modification:
    m_TransformParent: {fileID: 0}
    m_Modifications:
    - target: {fileID: 7862767443808139156, guid: 2683028258f17414b9facbeb0ab3b387,
        type: 3}
      propertyPath: m_Pivot.x
      value: 0.5
      objectReference: {fileID: 0}
    - target: {fileID: 7862767443808139156, guid: 2683028258f17414b9facbeb0ab3b387,
        type: 3}
      propertyPath: m_Pivot.y
      value: 0.5
      objectReference: {fileID: 0}
    - target: {fileID: 7862767443808139156, guid: 2683028258f17414b9facbeb0ab3b387,
        type: 3}
      propertyPath: m_RootOrder
      value: 0
      objectReference: {fileID: 0}
    - target: {fileID: 7862767443808139156, guid: 2683028258f17414b9facbeb0ab3b387,
        type: 3}
      propertyPath: m_AnchorMax.x
      value: 0.5
      objectReference: {fileID: 0}
    - target: {fileID: 7862767443808139156, guid: 2683028258f17414b9facbeb0ab3b387,
        type: 3}
      propertyPath: m_AnchorMax.y
      value: 0.5
      objectReference: {fileID: 0}
    - target: {fileID: 7862767443808139156, guid: 2683028258f17414b9facbeb0ab3b387,
        type: 3}
      propertyPath: m_AnchorMin.x
      value: 0.5
      objectReference: {fileID: 0}
    - target: {fileID: 7862767443808139156, guid: 2683028258f17414b9facbeb0ab3b387,
        type: 3}
      propertyPath: m_AnchorMin.y
      value: 0.5
      objectReference: {fileID: 0}
    - target: {fileID: 7862767443808139156, guid: 2683028258f17414b9facbeb0ab3b387,
        type: 3}
      propertyPath: m_SizeDelta.x
      value: 250
      objectReference: {fileID: 0}
    - target: {fileID: 7862767443808139156, guid: 2683028258f17414b9facbeb0ab3b387,
        type: 3}
      propertyPath: m_SizeDelta.y
      value: 100
      objectReference: {fileID: 0}
    - target: {fileID: 7862767443808139156, guid: 2683028258f17414b9facbeb0ab3b387,
        type: 3}
      propertyPath: m_LocalPosition.x
      value: 0
      objectReference: {fileID: 0}
    - target: {fileID: 7862767443808139156, guid: 2683028258f17414b9facbeb0ab3b387,
        type: 3}
      propertyPath: m_LocalPosition.y
      value: 0
      objectReference: {fileID: 0}
    - target: {fileID: 7862767443808139156, guid: 2683028258f17414b9facbeb0ab3b387,
        type: 3}
      propertyPath: m_LocalPosition.z
      value: 0
      objectReference: {fileID: 0}
    - target: {fileID: 7862767443808139156, guid: 2683028258f17414b9facbeb0ab3b387,
        type: 3}
      propertyPath: m_LocalRotation.w
      value: 1
      objectReference: {fileID: 0}
    - target: {fileID: 7862767443808139156, guid: 2683028258f17414b9facbeb0ab3b387,
        type: 3}
      propertyPath: m_LocalRotation.x
      value: 0
      objectReference: {fileID: 0}
    - target: {fileID: 7862767443808139156, guid: 2683028258f17414b9facbeb0ab3b387,
        type: 3}
      propertyPath: m_LocalRotation.y
      value: 0
      objectReference: {fileID: 0}
    - target: {fileID: 7862767443808139156, guid: 2683028258f17414b9facbeb0ab3b387,
        type: 3}
      propertyPath: m_LocalRotation.z
      value: 0
      objectReference: {fileID: 0}
    - target: {fileID: 7862767443808139156, guid: 2683028258f17414b9facbeb0ab3b387,
        type: 3}
      propertyPath: m_AnchoredPosition.x
      value: 0
      objectReference: {fileID: 0}
    - target: {fileID: 7862767443808139156, guid: 2683028258f17414b9facbeb0ab3b387,
        type: 3}
      propertyPath: m_AnchoredPosition.y
      value: 0
      objectReference: {fileID: 0}
    - target: {fileID: 7862767443808139156, guid: 2683028258f17414b9facbeb0ab3b387,
        type: 3}
      propertyPath: m_LocalEulerAnglesHint.x
      value: 0
      objectReference: {fileID: 0}
    - target: {fileID: 7862767443808139156, guid: 2683028258f17414b9facbeb0ab3b387,
        type: 3}
      propertyPath: m_LocalEulerAnglesHint.y
      value: 0
      objectReference: {fileID: 0}
    - target: {fileID: 7862767443808139156, guid: 2683028258f17414b9facbeb0ab3b387,
        type: 3}
      propertyPath: m_LocalEulerAnglesHint.z
      value: 0
      objectReference: {fileID: 0}
    - target: {fileID: 7862767443808139157, guid: 2683028258f17414b9facbeb0ab3b387,
        type: 3}
      propertyPath: m_Text
      value: 0
      objectReference: {fileID: 0}
    - target: {fileID: 7862767443808139157, guid: 2683028258f17414b9facbeb0ab3b387,
        type: 3}
      propertyPath: m_FontData.m_MaxSize
      value: 120
      objectReference: {fileID: 0}
    - target: {fileID: 7862767443808139157, guid: 2683028258f17414b9facbeb0ab3b387,
        type: 3}
      propertyPath: m_FontData.m_MinSize
      value: 1
      objectReference: {fileID: 0}
    - target: {fileID: 7862767443808139157, guid: 2683028258f17414b9facbeb0ab3b387,
        type: 3}
      propertyPath: m_FontData.m_FontSize
      value: 120
      objectReference: {fileID: 0}
    - target: {fileID: 7862767443808139159, guid: 2683028258f17414b9facbeb0ab3b387,
        type: 3}
      propertyPath: m_Name
      value: NumericText
      objectReference: {fileID: 0}
    m_RemovedComponents: []
  m_SourcePrefab: {fileID: 100100000, guid: 2683028258f17414b9facbeb0ab3b387, type: 3}
--- !u!1 &8308455822158039094 stripped
GameObject:
  m_CorrespondingSourceObject: {fileID: 7862767443808139159, guid: 2683028258f17414b9facbeb0ab3b387,
    type: 3}
  m_PrefabInstance: {fileID: 2185294581576318881}
  m_PrefabAsset: {fileID: 0}
--- !u!114 &8308455822158039092 stripped
MonoBehaviour:
  m_CorrespondingSourceObject: {fileID: 7862767443808139157, guid: 2683028258f17414b9facbeb0ab3b387,
    type: 3}
  m_PrefabInstance: {fileID: 2185294581576318881}
  m_PrefabAsset: {fileID: 0}
  m_GameObject: {fileID: 8308455822158039094}
  m_Enabled: 1
  m_EditorHideFlags: 0
  m_Script: {fileID: 11500000, guid: 5f7201a12d95ffc409449d95f23cf332, type: 3}
  m_Name: 
  m_EditorClassIdentifier: 
