%YAML 1.1
%TAG !u! tag:unity3d.com,2011:
--- !u!114 &3863579296814422623
MonoBehaviour:
  m_ObjectHideFlags: 0
  m_CorrespondingSourceObject: {fileID: 0}
  m_PrefabInstance: {fileID: 0}
  m_PrefabAsset: {fileID: 0}
  m_GameObject: {fileID: 2152108110016711400}
  m_Enabled: 1
  m_EditorHideFlags: 0
  m_Script: {fileID: 11500000, guid: feab4b1401fc89240a48342b8e3070d5, type: 3}
  m_Name: 
  m_EditorClassIdentifier: 
  ballTag: Ball
--- !u!1001 &7013580059023948138
PrefabInstance:
  m_ObjectHideFlags: 0
  serializedVersion: 2
  m_Modification:
    m_TransformParent: {fileID: 0}
    m_Modifications:
    - target: {fileID: 838753926698000391, guid: c1bb49d13ca95004dba30f2468e79f0b,
        type: 3}
      propertyPath: model
      value: 
      objectReference: {fileID: 11400000, guid: a8314a303e4c3504483e715b6e525da4,
        type: 2}
    - target: {fileID: 8465977193962444894, guid: c1bb49d13ca95004dba30f2468e79f0b,
        type: 3}
      propertyPath: moveableData
      value: 
      objectReference: {fileID: 11400000, guid: a8314a303e4c3504483e715b6e525da4,
        type: 2}
    - target: {fileID: 8973685088095712130, guid: c1bb49d13ca95004dba30f2468e79f0b,
        type: 3}
      propertyPath: m_Name
      value: PaddleAI
      objectReference: {fileID: 0}
    - target: {fileID: 8973685088095712140, guid: c1bb49d13ca95004dba30f2468e79f0b,
        type: 3}
      propertyPath: m_Color.b
      value: 1
      objectReference: {fileID: 0}
    - target: {fileID: 8973685088095712140, guid: c1bb49d13ca95004dba30f2468e79f0b,
        type: 3}
      propertyPath: m_Color.g
      value: 0.6506138
      objectReference: {fileID: 0}
    - target: {fileID: 8973685088095712140, guid: c1bb49d13ca95004dba30f2468e79f0b,
        type: 3}
      propertyPath: m_Color.r
      value: 0.19999999
      objectReference: {fileID: 0}
    - target: {fileID: 8973685088095712141, guid: c1bb49d13ca95004dba30f2468e79f0b,
        type: 3}
      propertyPath: m_RootOrder
      value: 0
      objectReference: {fileID: 0}
    - target: {fileID: 8973685088095712141, guid: c1bb49d13ca95004dba30f2468e79f0b,
        type: 3}
      propertyPath: m_LocalPosition.x
      value: 8
      objectReference: {fileID: 0}
    - target: {fileID: 8973685088095712141, guid: c1bb49d13ca95004dba30f2468e79f0b,
        type: 3}
      propertyPath: m_LocalPosition.y
      value: 0
      objectReference: {fileID: 0}
    - target: {fileID: 8973685088095712141, guid: c1bb49d13ca95004dba30f2468e79f0b,
        type: 3}
      propertyPath: m_LocalPosition.z
      value: 0
      objectReference: {fileID: 0}
    - target: {fileID: 8973685088095712141, guid: c1bb49d13ca95004dba30f2468e79f0b,
        type: 3}
      propertyPath: m_LocalRotation.w
      value: 1
      objectReference: {fileID: 0}
    - target: {fileID: 8973685088095712141, guid: c1bb49d13ca95004dba30f2468e79f0b,
        type: 3}
      propertyPath: m_LocalRotation.x
      value: 0
      objectReference: {fileID: 0}
    - target: {fileID: 8973685088095712141, guid: c1bb49d13ca95004dba30f2468e79f0b,
        type: 3}
      propertyPath: m_LocalRotation.y
      value: 0
      objectReference: {fileID: 0}
    - target: {fileID: 8973685088095712141, guid: c1bb49d13ca95004dba30f2468e79f0b,
        type: 3}
      propertyPath: m_LocalRotation.z
      value: 0
      objectReference: {fileID: 0}
    - target: {fileID: 8973685088095712141, guid: c1bb49d13ca95004dba30f2468e79f0b,
        type: 3}
      propertyPath: m_LocalEulerAnglesHint.x
      value: 0
      objectReference: {fileID: 0}
    - target: {fileID: 8973685088095712141, guid: c1bb49d13ca95004dba30f2468e79f0b,
        type: 3}
      propertyPath: m_LocalEulerAnglesHint.y
      value: 0
      objectReference: {fileID: 0}
    - target: {fileID: 8973685088095712141, guid: c1bb49d13ca95004dba30f2468e79f0b,
        type: 3}
      propertyPath: m_LocalEulerAnglesHint.z
      value: 0
      objectReference: {fileID: 0}
    m_RemovedComponents: []
  m_SourcePrefab: {fileID: 100100000, guid: c1bb49d13ca95004dba30f2468e79f0b, type: 3}
--- !u!1 &2152108110016711400 stripped
GameObject:
  m_CorrespondingSourceObject: {fileID: 8973685088095712130, guid: c1bb49d13ca95004dba30f2468e79f0b,
    type: 3}
  m_PrefabInstance: {fileID: 7013580059023948138}
  m_PrefabAsset: {fileID: 0}
