%YAML 1.1
%TAG !u! tag:unity3d.com,2011:
--- !u!114 &11400000
MonoBehaviour:
  m_ObjectHideFlags: 0
  m_CorrespondingSourceObject: {fileID: 0}
  m_PrefabInstance: {fileID: 0}
  m_PrefabAsset: {fileID: 0}
  m_GameObject: {fileID: 0}
  m_Enabled: 1
  m_EditorHideFlags: 0
  m_Script: {fileID: 11500000, guid: 553edf10c1932e846bad1fb442a643b4, type: 3}
  m_Name: BallMovement
  m_EditorClassIdentifier: 
  speed: 10
  speedFactorMultiplier: 1
  collision:
    serializedVersion: 2
    m_Bits: 768
  initialDirection: {x: 1, y: 1}
