%YAML 1.1
%TAG !u! tag:unity3d.com,2011:
--- !u!114 &11400000
MonoBehaviour:
  m_ObjectHideFlags: 0
  m_CorrespondingSourceObject: {fileID: 0}
  m_PrefabInstance: {fileID: 0}
  m_PrefabAsset: {fileID: 0}
  m_GameObject: {fileID: 0}
  m_Enabled: 1
  m_EditorHideFlags: 0
  m_Script: {fileID: 11500000, guid: b150169d30ae9e24a9ddbf9a9680e6fb, type: 3}
  m_Name: DefaultGameMatch
  m_EditorClassIdentifier: 
  totalCountdown: 3
  countdownFinalMessage: GO
  pointsPerRound: 1
  pointsToFinish: 5
  ballPrefab: {fileID: 7170271777394302370, guid: 99ca7f9cbf4c8234582848fb4193e1a3,
    type: 3}
  leftPaddlePrefab: {fileID: 1976830058630096923, guid: d97f1adf65c291141a2f0d0925211815,
    type: 3}
  rightPaddlePrefab: {fileID: 2152108110016711400, guid: 98e48f63af2b4a34cbece402fbfd1266,
    type: 3}
  gameCanvasUI: {fileID: 7958496572161146266, guid: 10edaada7319298429b4eb07d5cba14c,
    type: 3}
  arenaPrefab: {fileID: 2857555596887588601, guid: a916f62dcdac991449685d405ef6c0e0,
    type: 3}
